[
    {
        "id": 1,
        "clientid": 1,
        "price": 200,
        "checkindate": "2021-08-04 15:00:00",
        "checkoutdate": "2021-08-11 15:00:00"
    },
    {
        "id": 2,
        "clientid": 2,
        "price": 100,
        "checkindate": "2021-08-05 15:00:00",
        "checkoutdate": "2021-08-08 15:00:00"
    },
    {
        "checkindate": "2021-08-04 15:00:00",
        "checkoutdate": "2021-08-11 15:00:00",
        "price": 200,
        "clientid": 1,
        "id": 3
    },
    {
        "checkindate": "2021-08-04 15:00:00",
        "checkoutdate": "2021-08-11 15:00:00",
        "price": 200,
        "clientid": 1,
        "id": 4
    },
    {
        "checkindate": "2021-08-04 15:00:00",
        "checkoutdate": "2021-08-11 15:00:00",
        "price": 200,
        "clientid": 1,
        "id": 5
    },
    {
        "checkindate": "2021-08-04 15:00:00",
        "checkoutdate": "2021-08-11 15:00:00",
        "price": 200,
        "clientid": 1,
        "id": 6
    },
    {
        "checkindate": "2021-08-04 15:00:00",
        "checkoutdate": "2021-08-11 15:00:00",
        "price": 200,
        "clientid": 1,
        "id": 7
    },
    {
        "checkindate": "2021-08-04 15:00:00",
        "checkoutdate": "2021-08-11 15:00:00",
        "price": 200,
        "clientid": 1,
        "id": 8
    }
]